\relax 
\providecommand\hyper@newdestlabel[2]{}
\providecommand\HyperFirstAtBeginDocument{\AtBeginDocument}
\HyperFirstAtBeginDocument{\ifx\hyper@anchor\@undefined
\global\let\oldcontentsline\contentsline
\gdef\contentsline#1#2#3#4{\oldcontentsline{#1}{#2}{#3}}
\global\let\oldnewlabel\newlabel
\gdef\newlabel#1#2{\newlabelxx{#1}#2}
\gdef\newlabelxx#1#2#3#4#5#6{\oldnewlabel{#1}{{#2}{#3}}}
\AtEndDocument{\ifx\hyper@anchor\@undefined
\let\contentsline\oldcontentsline
\let\newlabel\oldnewlabel
\fi}
\fi}
\global\let\hyper@last\relax 
\gdef\HyperFirstAtBeginDocument#1{#1}
\providecommand\HyField@AuxAddToFields[1]{}
\providecommand\HyField@AuxAddToCoFields[2]{}
\citation{paper}
\citation{rnn}
\citation{lstm_paper1}
\citation{lstm_paper2}
\citation{lstm_origin}
\citation{soft_attention}
\citation{flickr8k}
\citation{flickr30k}
\citation{coco}
\citation{pytorch}
\select@language{english}
\@writefile{toc}{\select@language{english}}
\@writefile{lof}{\select@language{english}}
\@writefile{lot}{\select@language{english}}
\@writefile{toc}{\contentsline {section}{\numberline {1}Introduction}{1}{section.1}}
\@writefile{toc}{\contentsline {paragraph}{}{1}{section*.1}}
\@writefile{toc}{\contentsline {paragraph}{}{1}{section*.2}}
\@writefile{toc}{\contentsline {section}{\numberline {2}Compromises}{1}{section.2}}
\newlabel{sec:compromises}{{2}{1}{Compromises}{section.2}{}}
\@writefile{toc}{\contentsline {paragraph}{}{1}{section*.3}}
\@writefile{toc}{\contentsline {subsection}{\numberline {2.1}Attention model}{1}{subsection.2.1}}
\newlabel{subsec:compr_attn}{{2.1}{1}{Attention model}{subsection.2.1}{}}
\@writefile{toc}{\contentsline {paragraph}{}{1}{section*.4}}
\citation{bleu}
\citation{meteor}
\@writefile{toc}{\contentsline {paragraph}{}{2}{section*.5}}
\@writefile{toc}{\contentsline {subsection}{\numberline {2.2}Datasets}{2}{subsection.2.2}}
\@writefile{toc}{\contentsline {paragraph}{}{2}{section*.6}}
\@writefile{toc}{\contentsline {subsection}{\numberline {2.3}Evaluation metrics}{2}{subsection.2.3}}
\newlabel{subsec:meteor}{{2.3}{2}{Evaluation metrics}{subsection.2.3}{}}
\@writefile{toc}{\contentsline {paragraph}{}{2}{section*.7}}
\@writefile{toc}{\contentsline {section}{\numberline {3}Preprocessing}{2}{section.3}}
\newlabel{sec:algo}{{3}{2}{Preprocessing}{section.3}{}}
\@writefile{toc}{\contentsline {paragraph}{}{2}{section*.8}}
\@writefile{toc}{\contentsline {subsection}{\numberline {3.1}Preprocessing of the images}{2}{subsection.3.1}}
\@writefile{toc}{\contentsline {subsubsection}{\numberline {3.1.1}Resize and center-crop}{2}{subsubsection.3.1.1}}
\@writefile{toc}{\contentsline {paragraph}{}{2}{section*.9}}
\@writefile{toc}{\contentsline {paragraph}{}{2}{section*.10}}
\@writefile{toc}{\contentsline {subsubsection}{\numberline {3.1.2}Encoder}{2}{subsubsection.3.1.2}}
\@writefile{toc}{\contentsline {paragraph}{}{2}{section*.11}}
\citation{vgg}
\citation{pytorch_vgg}
\citation{bnorm}
\citation{imagenet}
\citation{arctic}
\@writefile{toc}{\contentsline {paragraph}{}{3}{section*.12}}
\@writefile{toc}{\contentsline {paragraph}{}{3}{section*.13}}
\@writefile{toc}{\contentsline {subsection}{\numberline {3.2}Preprocessing of text}{3}{subsection.3.2}}
\@writefile{toc}{\contentsline {subsubsection}{\numberline {3.2.1}Punctuation and other symbols}{3}{subsubsection.3.2.1}}
\@writefile{toc}{\contentsline {paragraph}{}{3}{section*.14}}
\@writefile{toc}{\contentsline {subsubsection}{\numberline {3.2.2}Maximum caption length}{3}{subsubsection.3.2.2}}
\@writefile{toc}{\contentsline {paragraph}{}{3}{section*.15}}
\citation{lstm_origin}
\citation{init}
\@writefile{toc}{\contentsline {subsubsection}{\numberline {3.2.3}Word-to-index}{4}{subsubsection.3.2.3}}
\newlabel{subsubsec:word2idx}{{3.2.3}{4}{Word-to-index}{subsubsection.3.2.3}{}}
\@writefile{toc}{\contentsline {paragraph}{}{4}{section*.16}}
\@writefile{toc}{\contentsline {subsubsection}{\numberline {3.2.4}Special "words"}{4}{subsubsection.3.2.4}}
\@writefile{toc}{\contentsline {paragraph}{}{4}{section*.17}}
\@writefile{toc}{\contentsline {section}{\numberline {4}Encoder}{4}{section.4}}
\@writefile{toc}{\contentsline {paragraph}{}{4}{section*.18}}
\@writefile{toc}{\contentsline {paragraph}{}{4}{section*.19}}
\@writefile{toc}{\contentsline {subsection}{\numberline {4.1}Initializers}{4}{subsection.4.1}}
\newlabel{subsec:initMlp}{{4.1}{4}{Initializers}{subsection.4.1}{}}
\@writefile{toc}{\contentsline {paragraph}{}{4}{section*.20}}
\@writefile{toc}{\contentsline {paragraph}{}{4}{section*.21}}
\citation{dropout}
\@writefile{toc}{\contentsline {paragraph}{}{5}{section*.22}}
\@writefile{toc}{\contentsline {paragraph}{}{5}{section*.23}}
\@writefile{toc}{\contentsline {paragraph}{}{5}{section*.24}}
\@writefile{toc}{\contentsline {subsection}{\numberline {4.2}Attention model}{5}{subsection.4.2}}
\@writefile{toc}{\contentsline {subsubsection}{\numberline {4.2.1}Background}{5}{subsubsection.4.2.1}}
\@writefile{toc}{\contentsline {paragraph}{}{5}{section*.25}}
\@writefile{toc}{\contentsline {paragraph}{}{5}{section*.26}}
\@writefile{toc}{\contentsline {paragraph}{}{5}{section*.27}}
\@writefile{toc}{\contentsline {paragraph}{}{5}{section*.28}}
\citation{embedding}
\citation{dropout_input}
\citation{h2h}
\@writefile{toc}{\contentsline {paragraph}{}{6}{section*.29}}
\@writefile{toc}{\contentsline {paragraph}{}{6}{section*.30}}
\@writefile{toc}{\contentsline {subsection}{\numberline {4.3}LSTM}{6}{subsection.4.3}}
\@writefile{toc}{\contentsline {paragraph}{}{6}{section*.31}}
\@writefile{toc}{\contentsline {paragraph}{}{6}{section*.32}}
\@writefile{toc}{\contentsline {paragraph}{}{6}{section*.33}}
\@writefile{toc}{\contentsline {paragraph}{}{6}{section*.34}}
\@writefile{toc}{\contentsline {paragraph}{}{6}{section*.35}}
\@writefile{toc}{\contentsline {subsection}{\numberline {4.4}Deep output layer}{6}{subsection.4.4}}
\@writefile{toc}{\contentsline {paragraph}{}{6}{section*.36}}
\citation{pytorch_crossentropy}
\@writefile{toc}{\contentsline {paragraph}{}{7}{section*.37}}
\@writefile{toc}{\contentsline {paragraph}{}{7}{section*.38}}
\@writefile{toc}{\contentsline {section}{\numberline {5}Training}{7}{section.5}}
\@writefile{toc}{\contentsline {subsection}{\numberline {5.1}Overall}{7}{subsection.5.1}}
\@writefile{toc}{\contentsline {paragraph}{}{7}{section*.39}}
\@writefile{toc}{\contentsline {paragraph}{}{7}{section*.40}}
\@writefile{toc}{\contentsline {paragraph}{}{7}{section*.41}}
\@writefile{toc}{\contentsline {subsection}{\numberline {5.2}Training time mini-batch selection}{7}{subsection.5.2}}
\@writefile{toc}{\contentsline {paragraph}{}{7}{section*.42}}
\@writefile{toc}{\contentsline {paragraph}{}{7}{section*.43}}
\@writefile{toc}{\contentsline {paragraph}{}{7}{section*.44}}
\@writefile{toc}{\contentsline {paragraph}{}{7}{section*.45}}
\@writefile{toc}{\contentsline {paragraph}{}{7}{section*.46}}
\citation{adam}
\citation{lstm_bnorm}
\@writefile{toc}{\contentsline {subsection}{\numberline {5.3}Loss function and optimizer}{8}{subsection.5.3}}
\@writefile{toc}{\contentsline {paragraph}{}{8}{section*.47}}
\@writefile{toc}{\contentsline {paragraph}{}{8}{section*.48}}
\@writefile{toc}{\contentsline {subsubsection}{\numberline {5.3.1}Doubly stochastic regularization}{8}{subsubsection.5.3.1}}
\@writefile{toc}{\contentsline {paragraph}{}{8}{section*.49}}
\@writefile{toc}{\contentsline {subsection}{\numberline {5.4}Regularization}{8}{subsection.5.4}}
\@writefile{toc}{\contentsline {paragraph}{}{8}{section*.50}}
\@writefile{toc}{\contentsline {paragraph}{}{8}{section*.51}}
\@writefile{toc}{\contentsline {subsection}{\numberline {5.5}Validation}{8}{subsection.5.5}}
\newlabel{subsec:validation}{{5.5}{8}{Validation}{subsection.5.5}{}}
\@writefile{toc}{\contentsline {paragraph}{}{8}{section*.52}}
\@writefile{toc}{\contentsline {section}{\numberline {6}Evaluation}{8}{section.6}}
\@writefile{toc}{\contentsline {subsection}{\numberline {6.1}METEOR score}{8}{subsection.6.1}}
\@writefile{toc}{\contentsline {paragraph}{}{8}{section*.53}}
\citation{learning_rate}
\citation{relu}
\@writefile{toc}{\contentsline {paragraph}{}{9}{section*.54}}
\@writefile{toc}{\contentsline {section}{\numberline {7}Analysis and Speculation}{9}{section.7}}
\@writefile{toc}{\contentsline {paragraph}{}{9}{section*.55}}
\@writefile{toc}{\contentsline {subsection}{\numberline {7.1}Common failure modes}{9}{subsection.7.1}}
\newlabel{subsec:modes}{{7.1}{9}{Common failure modes}{subsection.7.1}{}}
\@writefile{toc}{\contentsline {paragraph}{}{9}{section*.56}}
\@writefile{toc}{\contentsline {paragraph}{}{9}{section*.57}}
\@writefile{toc}{\contentsline {subsubsection}{\numberline {7.1.1}Repetition of filler words}{10}{subsubsection.7.1.1}}
\@writefile{lof}{\contentsline {figure}{\numberline {1}{\ignorespaces a man is a a a a a a (according to my model)\relax }}{10}{figure.caption.58}}
\providecommand*\caption@xref[2]{\@setref\relax\@undefined{#1}}
\newlabel{fig:hiker}{{1}{10}{a man is a a a a a a (according to my model)\relax }{figure.caption.58}{}}
\@writefile{toc}{\contentsline {paragraph}{}{10}{section*.59}}
\@writefile{toc}{\contentsline {paragraph}{}{10}{section*.60}}
\@writefile{toc}{\contentsline {subsubsection}{\numberline {7.1.2}Repetition of the content}{10}{subsubsection.7.1.2}}
\@writefile{toc}{\contentsline {paragraph}{}{10}{section*.63}}
\@writefile{lof}{\contentsline {figure}{\numberline {2}{\ignorespaces a man in a climbing rock climbing climbing rock (according to my model)\relax }}{11}{figure.caption.61}}
\newlabel{fig:climber}{{2}{11}{a man in a climbing rock climbing climbing rock (according to my model)\relax }{figure.caption.61}{}}
\@writefile{lof}{\contentsline {figure}{\numberline {3}{\ignorespaces a brown dog dog is through the (according to my model)\relax }}{11}{figure.caption.62}}
\newlabel{fig:dog_dog}{{3}{11}{a brown dog dog is through the (according to my model)\relax }{figure.caption.62}{}}
\bibcite{paper}{1}
\@writefile{lof}{\contentsline {figure}{\numberline {4}{\ignorespaces Some relatively successful cases\relax }}{12}{figure.caption.64}}
\newlabel{fig:success}{{4}{12}{Some relatively successful cases\relax }{figure.caption.64}{}}
\@writefile{lof}{\contentsline {subfigure}{\numberline{(a)}{\ignorespaces {a boy splashes in water pool}}}{12}{subfigure.4.1}}
\@writefile{lof}{\contentsline {subfigure}{\numberline{(b)}{\ignorespaces {a man standing in a mountain}}}{12}{subfigure.4.2}}
\@writefile{lof}{\contentsline {subfigure}{\numberline{(c)}{\ignorespaces {two dogs are on the beach}}}{12}{subfigure.4.3}}
\@writefile{toc}{\contentsline {subsection}{\numberline {7.2}Success cases}{12}{subsection.7.2}}
\@writefile{toc}{\contentsline {paragraph}{}{12}{section*.65}}
\@writefile{toc}{\contentsline {paragraph}{}{12}{section*.66}}
\@writefile{toc}{\contentsline {section}{\numberline {8}Conclusion}{12}{section.8}}
\@writefile{toc}{\contentsline {paragraph}{}{12}{section*.67}}
\bibcite{rnn}{2}
\bibcite{lstm_origin}{3}
\bibcite{lstm_paper1}{4}
\bibcite{lstm_paper2}{5}
\bibcite{soft_attention}{6}
\bibcite{flickr8k}{7}
\bibcite{flickr30k}{8}
\bibcite{coco}{9}
\bibcite{pytorch}{10}
\bibcite{bleu}{11}
\bibcite{meteor}{12}
\bibcite{vgg}{13}
\bibcite{pytorch_vgg}{14}
\bibcite{bnorm}{15}
\bibcite{arctic}{16}
\bibcite{imagenet}{17}
\bibcite{init}{18}
\bibcite{dropout}{19}
\bibcite{embedding}{20}
\bibcite{dropout_input}{21}
\bibcite{h2h}{22}
\bibcite{pytorch_crossentropy}{23}
\bibcite{adam}{24}
\bibcite{lstm_bnorm}{25}
\bibcite{learning_rate}{26}
\bibcite{relu}{27}
